Categorical Data – MSDA IFP – MSDA
…
LeadStudio frequency table

# LeadStudio frequency table
tbl_studio <- movies |>
  count(LeadStudio, name = "n") |>
  mutate(
    Percent = round((n / sum(n)) * 100, digits = 2)
  ) |>
  arrange(desc(n))

tbl_studio

# A tibble: 99 × 3
   LeadStudio                              n Percent
   <chr>                               <int>   <dbl>
 1 Warner Bros.                          136   10.5 
 2 Universal Pictures                    114    8.8 
 3 Lionsgate                             106    8.19
 4 Twentieth Century Fox                 103    7.95
 5 Paramount Pictures                     76    5.87
 6 Sony Pictures Releasing                72    5.56
 7 Walt Disney Studios Motion Pictures    72    5.56
 8 Focus Features                         46    3.55
 9 Sony Pictures Classics                 44    3.4 
10 Fox Searchlight Pictures               42    3.24
# ℹ 89 more rows
…
