Week 10 – Continuous Variables – MSDA
…
Numeric continuous
✓
✓
✓

For numeric variables there can be many different values, so the mode is not always very informative. However, we can still calculate it if we wish.

Below we look at the most frequent value (the mode) of the IQ variable in the students data.

students |>
count(IQ, name = "n") |>
arrange(desc(n))

# A tibble: 39 × 2
      IQ     n
   <dbl> <int>
 1   104    13
 2   108    12
 3   100    11
 4   101    11
 5    99     9
 6    95     8
 7   102     8
 8   106     8
 9   112     8
10   113     8
# ℹ 29 more rows
…
