Research Design & Data – MSDA IFP – MSDA
…
Overall, summary() provides a useful first look at the structure of the dataset and can help identify potential issues such as unrealistic values or many missing entries.

Detecting unusual values

Sometimes it is helpful to look for values that seem unrealistic.

From the summary output, we noticed that Profitability has a maximum value of 10,176%, which suggests a film supposedly earned more than one hundred times its budget. This is extremely unlikely and probably indicates a data entry error.

To inspect these cases more closely, we can filter the rows where profitability is greater than 1000%:

a > b tests whether a is greater than b. a < b tests whether a is smaller than b. a == b tests whether a is equal to b; notice the double equal sign! You can also use >= or <=

movies[movies$Profitability > 1000, ]

# A tibble: 319 × 15
   Movie          LeadStudio RottenTomatoes AudienceScore Genre TheatersOpenWeek
   <chr>          <fct>               <dbl>         <dbl> <fct>            <dbl>
 1 2016: Obama's… Rocky Mou…             26            73 Docu…                1
 2 <NA>           <NA>                   NA            NA <NA>                NA
 3 <NA>           <NA>                   NA            NA <NA>                NA
 4 <NA>           <NA>                   NA            NA <NA>                NA
 5 Beasts of the… Fox Searc…             86            76 Drama                4
 6 Chernobyl Dia… Warner Br…             19            29 Horr…             2433
 7 Chronicle      Twentieth…             85            71 Thri…             2907
 8 <NA>           <NA>                   NA            NA <NA>                NA
 9 <NA>           <NA>                   NA            NA <NA>                NA
10 <NA>           <NA>                   NA            NA <NA>                NA
# ℹ 309 more rows
# ℹ 9 more variables: OpeningWeekend <dbl>, BOAvgOpenWeekend <dbl>,
#   Budget <dbl>, DomesticGross <dbl>, WorldGross <dbl>, ForeignGross <dbl>,
#   Profitability <dbl>, OpenProfit <dbl>, Year <fct>
…
